%YAML 1.1
%TAG !u! tag:unity3d.com,2011:
--- !u!74 &7400000
AnimationClip:
  m_ObjectHideFlags: 0
  m_PrefabParentObject: {fileID: 0}
  m_PrefabInternal: {fileID: 0}
  m_Name: Walk
  serializedVersion: 4
  m_AnimationType: 2
  m_Compressed: 0
  m_UseHighQualityCurve: 1
  m_RotationCurves: []
  m_CompressedRotationCurves: []
  m_PositionCurves: []
  m_ScaleCurves: []
  m_FloatCurves: []
  m_PPtrCurves:
  - curve:
    - time: 0
      value: {fileID: 21300000, guid: feda0c18015b3284cabbc0da85254f9a, type: 3}
    - time: .0416666679
      value: {fileID: 21300002, guid: feda0c18015b3284cabbc0da85254f9a, type: 3}
    - time: .0833333358
      value: {fileID: 21300004, guid: feda0c18015b3284cabbc0da85254f9a, type: 3}
    - time: .125
      value: {fileID: 21300006, guid: feda0c18015b3284cabbc0da85254f9a, type: 3}
    - time: .166666672
      value: {fileID: 21300008, guid: feda0c18015b3284cabbc0da85254f9a, type: 3}
    - time: .208333343
      value: {fileID: 21300010, guid: feda0c18015b3284cabbc0da85254f9a, type: 3}
    - time: .25
      value: {fileID: 21300012, guid: feda0c18015b3284cabbc0da85254f9a, type: 3}
    - time: .291666657
      value: {fileID: 21300014, guid: feda0c18015b3284cabbc0da85254f9a, type: 3}
    - time: .333333313
      value: {fileID: 21300016, guid: feda0c18015b3284cabbc0da85254f9a, type: 3}
    - time: .37499997
      value: {fileID: 21300018, guid: feda0c18015b3284cabbc0da85254f9a, type: 3}
    - time: .416666627
      value: {fileID: 21300020, guid: feda0c18015b3284cabbc0da85254f9a, type: 3}
    - time: .458333284
      value: {fileID: 21300022, guid: feda0c18015b3284cabbc0da85254f9a, type: 3}
    - time: .49999994
      value: {fileID: 21300024, guid: feda0c18015b3284cabbc0da85254f9a, type: 3}
    - time: .541666627
      value: {fileID: 21300026, guid: feda0c18015b3284cabbc0da85254f9a, type: 3}
    - time: .583333313
      value: {fileID: 21300028, guid: feda0c18015b3284cabbc0da85254f9a, type: 3}
    - time: .625
      value: {fileID: 21300030, guid: feda0c18015b3284cabbc0da85254f9a, type: 3}
    attribute: m_Sprite
    path: 
    classID: 212
    script: {fileID: 0}
  m_SampleRate: 24
  m_WrapMode: 0
  m_Bounds:
    m_Center: {x: 0, y: 0, z: 0}
    m_Extent: {x: 0, y: 0, z: 0}
  m_ClipBindingConstant:
    genericBindings:
    - path: 0
      attribute: 0
      script: {fileID: 0}
      classID: 212
      customType: 23
      isPPtrCurve: 1
    pptrCurveMapping:
    - {fileID: 21300000, guid: feda0c18015b3284cabbc0da85254f9a, type: 3}
    - {fileID: 21300002, guid: feda0c18015b3284cabbc0da85254f9a, type: 3}
    - {fileID: 21300004, guid: feda0c18015b3284cabbc0da85254f9a, type: 3}
    - {fileID: 21300006, guid: feda0c18015b3284cabbc0da85254f9a, type: 3}
    - {fileID: 21300008, guid: feda0c18015b3284cabbc0da85254f9a, type: 3}
    - {fileID: 21300010, guid: feda0c18015b3284cabbc0da85254f9a, type: 3}
    - {fileID: 21300012, guid: feda0c18015b3284cabbc0da85254f9a, type: 3}
    - {fileID: 21300014, guid: feda0c18015b3284cabbc0da85254f9a, type: 3}
    - {fileID: 21300016, guid: feda0c18015b3284cabbc0da85254f9a, type: 3}
    - {fileID: 21300018, guid: feda0c18015b3284cabbc0da85254f9a, type: 3}
    - {fileID: 21300020, guid: feda0c18015b3284cabbc0da85254f9a, type: 3}
    - {fileID: 21300022, guid: feda0c18015b3284cabbc0da85254f9a, type: 3}
    - {fileID: 21300024, guid: feda0c18015b3284cabbc0da85254f9a, type: 3}
    - {fileID: 21300026, guid: feda0c18015b3284cabbc0da85254f9a, type: 3}
    - {fileID: 21300028, guid: feda0c18015b3284cabbc0da85254f9a, type: 3}
    - {fileID: 21300030, guid: feda0c18015b3284cabbc0da85254f9a, type: 3}
  m_AnimationClipSettings:
    serializedVersion: 2
    m_StartTime: 0
    m_StopTime: .666666687
    m_OrientationOffsetY: 0
    m_Level: 0
    m_CycleOffset: 0
    m_LoopTime: 1
    m_LoopBlend: 0
    m_LoopBlendOrientation: 0
    m_LoopBlendPositionY: 0
    m_LoopBlendPositionXZ: 0
    m_KeepOriginalOrientation: 0
    m_KeepOriginalPositionY: 1
    m_KeepOriginalPositionXZ: 0
    m_HeightFromFeet: 0
    m_Mirror: 0
  m_EditorCurves: []
  m_EulerEditorCurves: []
  m_Events: []
