%YAML 1.1
%TAG !u! tag:unity3d.com,2011:
--- !u!29 &1
SceneSettings:
  m_ObjectHideFlags: 0
  m_PVSData: 
  m_PVSObjectsArray: []
  m_PVSPortalsArray: []
  m_OcclusionBakeSettings:
    smallestOccluder: 5
    smallestHole: .25
    backfaceThreshold: 100
--- !u!104 &2
RenderSettings:
  m_Fog: 0
  m_FogColor: {r: 1, g: 1, b: 1, a: 1}
  m_FogMode: 3
  m_FogDensity: .00499999989
  m_LinearFogStart: 0
  m_LinearFogEnd: 300
  m_AmbientLight: {r: .256824285, g: .318647504, b: .392156869, a: 1}
  m_SkyboxMaterial: {fileID: 2100000, guid: 5ba172cd3918d7c44aa6d04446119a00, type: 2}
  m_HaloStrength: .5
  m_FlareStrength: 1
  m_FlareFadeSpeed: 3
  m_HaloTexture: {fileID: 0}
  m_SpotCookie: {fileID: 0}
  m_ObjectHideFlags: 0
--- !u!127 &3
LevelGameManager:
  m_ObjectHideFlags: 0
--- !u!157 &4
LightmapSettings:
  m_ObjectHideFlags: 0
  m_LightProbes: {fileID: 0}
  m_Lightmaps: []
  m_LightmapsMode: 1
  m_BakedColorSpace: 0
  m_UseDualLightmapsInForward: 0
  m_LightmapEditorSettings:
    m_Resolution: 50
    m_LastUsedResolution: 0
    m_TextureWidth: 1024
    m_TextureHeight: 1024
    m_BounceBoost: 1
    m_BounceIntensity: 1
    m_SkyLightColor: {r: .860000014, g: .930000007, b: 1, a: 1}
    m_SkyLightIntensity: 0
    m_Quality: 0
    m_Bounces: 1
    m_FinalGatherRays: 1000
    m_FinalGatherContrastThreshold: .0500000007
    m_FinalGatherGradientThreshold: 0
    m_FinalGatherInterpolationPoints: 15
    m_AOAmount: 0
    m_AOMaxDistance: .100000001
    m_AOContrast: 1
    m_LODSurfaceMappingDistance: 1
    m_Padding: 0
    m_TextureCompression: 0
    m_LockAtlas: 0
--- !u!196 &5
NavMeshSettings:
  m_ObjectHideFlags: 0
  m_BuildSettings:
    agentRadius: .5
    agentHeight: 2
    agentSlope: 45
    agentClimb: .400000006
    ledgeDropHeight: 0
    maxJumpAcrossDistance: 0
    accuratePlacement: 0
    minRegionArea: 2
    widthInaccuracy: 16.666666
    heightInaccuracy: 10
    tileSizeHint: 0
  m_NavMesh: {fileID: 0}
--- !u!1 &50293810
GameObject:
  m_ObjectHideFlags: 0
  m_PrefabParentObject: {fileID: 100000, guid: 76d89ae3180ce424ba0da8fc43e02035, type: 2}
  m_PrefabInternal: {fileID: 2028183761}
  serializedVersion: 4
  m_Component:
  - 4: {fileID: 50293812}
  - 114: {fileID: 50293811}
  m_Layer: 0
  m_Name: Mobile Shader Replacements
  m_TagString: Untagged
  m_Icon: {fileID: 0}
  m_NavMeshLayer: 0
  m_StaticEditorFlags: 0
  m_IsActive: 1
--- !u!114 &50293811
MonoBehaviour:
  m_ObjectHideFlags: 0
  m_PrefabParentObject: {fileID: 11400000, guid: 76d89ae3180ce424ba0da8fc43e02035,
    type: 2}
  m_PrefabInternal: {fileID: 2028183761}
  m_GameObject: {fileID: 50293810}
  m_Enabled: 1
  m_EditorHideFlags: 0
  m_Script: {fileID: 11500000, guid: 9c4978ff6447f9040b84acc89b0bbdc8, type: 3}
  m_Name: 
  m_EditorClassIdentifier: 
  replacements:
    items:
    - original: {fileID: 23, guid: 0000000000000000f000000000000000, type: 0}
      replacement: {fileID: 4800000, guid: 301ff9ac12ffa4d43bc26ffbb2be17b2, type: 3}
    - original: {fileID: 23, guid: 0000000000000000f000000000000000, type: 0}
      replacement: {fileID: 4800000, guid: 301ff9ac12ffa4d43bc26ffbb2be17b2, type: 3}
    - original: {fileID: 4800000, guid: eed5000546afeea48bdeeb5cf208c2e9, type: 3}
      replacement: {fileID: 4800000, guid: 301ff9ac12ffa4d43bc26ffbb2be17b2, type: 3}
    - original: {fileID: 4, guid: 0000000000000000f000000000000000, type: 0}
      replacement: {fileID: 10705, guid: 0000000000000000f000000000000000, type: 0}
    - original: {fileID: 21, guid: 0000000000000000f000000000000000, type: 0}
      replacement: {fileID: 10705, guid: 0000000000000000f000000000000000, type: 0}
    - original: {fileID: 22, guid: 0000000000000000f000000000000000, type: 0}
      replacement: {fileID: 4800000, guid: 301ff9ac12ffa4d43bc26ffbb2be17b2, type: 3}
--- !u!4 &50293812
Transform:
  m_ObjectHideFlags: 0
  m_PrefabParentObject: {fileID: 400000, guid: 76d89ae3180ce424ba0da8fc43e02035, type: 2}
  m_PrefabInternal: {fileID: 2028183761}
  m_GameObject: {fileID: 50293810}
  m_LocalRotation: {x: 0, y: 0, z: 0, w: 1}
  m_LocalPosition: {x: 0, y: 0, z: 0}
  m_LocalScale: {x: 1, y: 1, z: 1}
  m_Children: []
  m_Father: {fileID: 0}
  m_RootOrder: 0
--- !u!1001 &131094097
Prefab:
  m_ObjectHideFlags: 0
  serializedVersion: 2
  m_Modification:
    m_TransformParent: {fileID: 0}
    m_Modifications:
    - target: {fileID: 400000, guid: 753ea9ccf9eee6c42a0954ec8663b992, type: 2}
      propertyPath: m_LocalPosition.x
      value: 0
      objectReference: {fileID: 0}
    - target: {fileID: 400000, guid: 753ea9ccf9eee6c42a0954ec8663b992, type: 2}
      propertyPath: m_LocalPosition.y
      value: .5
      objectReference: {fileID: 0}
    - target: {fileID: 400000, guid: 753ea9ccf9eee6c42a0954ec8663b992, type: 2}
      propertyPath: m_LocalPosition.z
      value: 0
      objectReference: {fileID: 0}
    - target: {fileID: 400000, guid: 753ea9ccf9eee6c42a0954ec8663b992, type: 2}
      propertyPath: m_LocalRotation.x
      value: 0
      objectReference: {fileID: 0}
    - target: {fileID: 400000, guid: 753ea9ccf9eee6c42a0954ec8663b992, type: 2}
      propertyPath: m_LocalRotation.y
      value: 0
      objectReference: {fileID: 0}
    - target: {fileID: 400000, guid: 753ea9ccf9eee6c42a0954ec8663b992, type: 2}
      propertyPath: m_LocalRotation.z
      value: 0
      objectReference: {fileID: 0}
    - target: {fileID: 400000, guid: 753ea9ccf9eee6c42a0954ec8663b992, type: 2}
      propertyPath: m_LocalRotation.w
      value: 1
      objectReference: {fileID: 0}
    m_RemovedComponents: []
  m_ParentPrefab: {fileID: 100100000, guid: 753ea9ccf9eee6c42a0954ec8663b992, type: 2}
  m_RootGameObject: {fileID: 1856982364}
  m_IsPrefabParent: 0
  m_IsExploded: 1
--- !u!1001 &163709026
Prefab:
  m_ObjectHideFlags: 0
  serializedVersion: 2
  m_Modification:
    m_TransformParent: {fileID: 0}
    m_Modifications:
    - target: {fileID: 400000, guid: faad7b4fb706f44478b101c4da4fa1d1, type: 2}
      propertyPath: m_LocalPosition.x
      value: 0
      objectReference: {fileID: 0}
    - target: {fileID: 400000, guid: faad7b4fb706f44478b101c4da4fa1d1, type: 2}
      propertyPath: m_LocalPosition.y
      value: 0
      objectReference: {fileID: 0}
    - target: {fileID: 400000, guid: faad7b4fb706f44478b101c4da4fa1d1, type: 2}
      propertyPath: m_LocalPosition.z
      value: 0
      objectReference: {fileID: 0}
    - target: {fileID: 400000, guid: faad7b4fb706f44478b101c4da4fa1d1, type: 2}
      propertyPath: m_LocalRotation.x
      value: 0
      objectReference: {fileID: 0}
    - target: {fileID: 400000, guid: faad7b4fb706f44478b101c4da4fa1d1, type: 2}
      propertyPath: m_LocalRotation.y
      value: 0
      objectReference: {fileID: 0}
    - target: {fileID: 400000, guid: faad7b4fb706f44478b101c4da4fa1d1, type: 2}
      propertyPath: m_LocalRotation.z
      value: 0
      objectReference: {fileID: 0}
    - target: {fileID: 400000, guid: faad7b4fb706f44478b101c4da4fa1d1, type: 2}
      propertyPath: m_LocalRotation.w
      value: 1
      objectReference: {fileID: 0}
    - target: {fileID: 100000, guid: faad7b4fb706f44478b101c4da4fa1d1, type: 2}
      propertyPath: m_Name
      value: Floor
      objectReference: {fileID: 0}
    m_RemovedComponents: []
  m_ParentPrefab: {fileID: 100100000, guid: faad7b4fb706f44478b101c4da4fa1d1, type: 2}
  m_RootGameObject: {fileID: 1917740740}
  m_IsPrefabParent: 0
  m_IsExploded: 1
--- !u!1 &258257270
GameObject:
  m_ObjectHideFlags: 0
  m_PrefabParentObject: {fileID: 100002, guid: dad204f0be9faf44180198af52716979, type: 2}
  m_PrefabInternal: {fileID: 1775576662}
  serializedVersion: 4
  m_Component:
  - 4: {fileID: 258257272}
  - 114: {fileID: 258257271}
  m_Layer: 0
  m_Name: Mobile Single Stick Control Rig
  m_TagString: Untagged
  m_Icon: {fileID: 0}
  m_NavMeshLayer: 0
  m_StaticEditorFlags: 0
  m_IsActive: 1
--- !u!114 &258257271
MonoBehaviour:
  m_ObjectHideFlags: 0
  m_PrefabParentObject: {fileID: 11400000, guid: dad204f0be9faf44180198af52716979,
    type: 2}
  m_PrefabInternal: {fileID: 1775576662}
  m_GameObject: {fileID: 258257270}
  m_Enabled: 1
  m_EditorHideFlags: 0
  m_Script: {fileID: 11500000, guid: 71398ce7fbc3a5b4fa50b50bd54317a7, type: 3}
  m_Name: 
  m_EditorClassIdentifier: 
--- !u!4 &258257272
Transform:
  m_ObjectHideFlags: 0
  m_PrefabParentObject: {fileID: 400002, guid: dad204f0be9faf44180198af52716979, type: 2}
  m_PrefabInternal: {fileID: 1775576662}
  m_GameObject: {fileID: 258257270}
  m_LocalRotation: {x: 0, y: 0, z: 0, w: 1}
  m_LocalPosition: {x: 0, y: 0, z: 0}
  m_LocalScale: {x: 1, y: 1, z: 1}
  m_Children:
  - {fileID: 828819531}
  - {fileID: 1103387955}
  m_Father: {fileID: 0}
  m_RootOrder: 1
--- !u!1 &421054669
GameObject:
  m_ObjectHideFlags: 0
  m_PrefabParentObject: {fileID: 100004, guid: 39bad9409a26955448ed6b7943f53c9a, type: 2}
  m_PrefabInternal: {fileID: 1292994222}
  serializedVersion: 4
  m_Component:
  - 4: {fileID: 421054670}
  - 114: {fileID: 421054671}
  m_Layer: 0
  m_Name: Lights
  m_TagString: Untagged
  m_Icon: {fileID: 0}
  m_NavMeshLayer: 0
  m_StaticEditorFlags: 0
  m_IsActive: 1
--- !u!4 &421054670
Transform:
  m_ObjectHideFlags: 0
  m_PrefabParentObject: {fileID: 400004, guid: 39bad9409a26955448ed6b7943f53c9a, type: 2}
  m_PrefabInternal: {fileID: 1292994222}
  m_GameObject: {fileID: 421054669}
  m_LocalRotation: {x: 0, y: 0, z: 0, w: 1}
  m_LocalPosition: {x: 0, y: 0, z: 0}
  m_LocalScale: {x: 1, y: 1, z: 1}
  m_Children:
  - {fileID: 531759051}
  - {fileID: 879837759}
  m_Father: {fileID: 0}
  m_RootOrder: 2
--- !u!114 &421054671
MonoBehaviour:
  m_ObjectHideFlags: 0
  m_PrefabParentObject: {fileID: 11400000, guid: 39bad9409a26955448ed6b7943f53c9a,
    type: 2}
  m_PrefabInternal: {fileID: 1292994222}
  m_GameObject: {fileID: 421054669}
  m_Enabled: 1
  m_EditorHideFlags: 0
  m_Script: {fileID: 11500000, guid: b27507c5d0efbbd47ac8c1de9a1a0a35, type: 3}
  m_Name: 
  m_EditorClassIdentifier: 
  showOnlyOn: 0
  content:
  - {fileID: 879837758}
  childrenOfThisObject: 0
--- !u!1 &474335313
GameObject:
  m_ObjectHideFlags: 0
  m_PrefabParentObject: {fileID: 100000, guid: 49a0e923d39ec3c4c8bb97699e2f2903, type: 2}
  m_PrefabInternal: {fileID: 1005348806}
  serializedVersion: 4
  m_Component:
  - 4: {fileID: 474335314}
  m_Layer: 0
  m_Name: Pivot
  m_TagString: Untagged
  m_Icon: {fileID: -1500306622, guid: 0000000000000000d000000000000000, type: 0}
  m_NavMeshLayer: 0
  m_StaticEditorFlags: 0
  m_IsActive: 1
--- !u!4 &474335314
Transform:
  m_ObjectHideFlags: 0
  m_PrefabParentObject: {fileID: 400000, guid: 49a0e923d39ec3c4c8bb97699e2f2903, type: 2}
  m_PrefabInternal: {fileID: 1005348806}
  m_GameObject: {fileID: 474335313}
  m_LocalRotation: {x: 0, y: 0, z: 0, w: 1}
  m_LocalPosition: {x: 0, y: 1.5, z: 0}
  m_LocalScale: {x: 1, y: 1, z: 1}
  m_Children:
  - {fileID: 821769594}
  m_Father: {fileID: 1886412971}
  m_RootOrder: 0
--- !u!1 &531759049
GameObject:
  m_ObjectHideFlags: 0
  m_PrefabParentObject: {fileID: 100002, guid: 39bad9409a26955448ed6b7943f53c9a, type: 2}
  m_PrefabInternal: {fileID: 1292994222}
  serializedVersion: 4
  m_Component:
  - 4: {fileID: 531759051}
  - 108: {fileID: 531759050}
  m_Layer: 0
  m_Name: Light Main Directional
  m_TagString: Untagged
  m_Icon: {fileID: 0}
  m_NavMeshLayer: 0
  m_StaticEditorFlags: 0
  m_IsActive: 1
--- !u!108 &531759050
Light:
  m_ObjectHideFlags: 0
  m_PrefabParentObject: {fileID: 10800002, guid: 39bad9409a26955448ed6b7943f53c9a,
    type: 2}
  m_PrefabInternal: {fileID: 1292994222}
  m_GameObject: {fileID: 531759049}
  m_Enabled: 1
  serializedVersion: 3
  m_Type: 1
  m_Color: {r: .999492884, g: 1, b: .963235319, a: 1}
  m_Intensity: .5
  m_Range: 44.5999985
  m_SpotAngle: 112
  m_CookieSize: 10
  m_Shadows:
    m_Type: 2
    m_Resolution: 2
    m_Strength: .600000024
    m_Bias: .00999999978
    m_Softness: 1.75
    m_SoftnessFade: .75
  m_Cookie: {fileID: 0}
  m_DrawHalo: 0
  m_ActuallyLightmapped: 0
  m_Flare: {fileID: 0}
  m_RenderMode: 1
  m_CullingMask:
    serializedVersion: 2
    m_Bits: 4294967295
  m_Lightmapping: 1
  m_ShadowSamples: 1
  m_ShadowRadius: 0
  m_ShadowAngle: 0
  m_IndirectIntensity: 1
  m_AreaSize: {x: 1, y: 1}
--- !u!4 &531759051
Transform:
  m_ObjectHideFlags: 0
  m_PrefabParentObject: {fileID: 400002, guid: 39bad9409a26955448ed6b7943f53c9a, type: 2}
  m_PrefabInternal: {fileID: 1292994222}
  m_GameObject: {fileID: 531759049}
  m_LocalRotation: {x: .561975896, y: -.241147667, z: .715349615, w: .338091642}
  m_LocalPosition: {x: 0, y: 12, z: 0}
  m_LocalScale: {x: 1, y: 1, z: 1}
  m_Children: []
  m_Father: {fileID: 421054670}
  m_RootOrder: 0
--- !u!1 &821769593
GameObject:
  m_ObjectHideFlags: 0
  m_PrefabParentObject: {fileID: 100002, guid: 49a0e923d39ec3c4c8bb97699e2f2903, type: 2}
  m_PrefabInternal: {fileID: 1005348806}
  serializedVersion: 4
  m_Component:
  - 4: {fileID: 821769594}
  - 20: {fileID: 821769598}
  - 92: {fileID: 821769597}
  - 124: {fileID: 821769596}
  - 81: {fileID: 821769595}
  m_Layer: 0
  m_Name: Main Camera
  m_TagString: MainCamera
  m_Icon: {fileID: 0}
  m_NavMeshLayer: 0
  m_StaticEditorFlags: 0
  m_IsActive: 1
--- !u!4 &821769594
Transform:
  m_ObjectHideFlags: 0
  m_PrefabParentObject: {fileID: 400002, guid: 49a0e923d39ec3c4c8bb97699e2f2903, type: 2}
  m_PrefabInternal: {fileID: 1005348806}
  m_GameObject: {fileID: 821769593}
  m_LocalRotation: {x: 0, y: 6.33250039e-08, z: 0, w: 1}
  m_LocalPosition: {x: -0, y: 0, z: -6}
  m_LocalScale: {x: 1, y: 1, z: 1}
  m_Children: []
  m_Father: {fileID: 474335314}
  m_RootOrder: 0
--- !u!81 &821769595
AudioListener:
  m_ObjectHideFlags: 0
  m_PrefabParentObject: {fileID: 8100000, guid: 49a0e923d39ec3c4c8bb97699e2f2903,
    type: 2}
  m_PrefabInternal: {fileID: 1005348806}
  m_GameObject: {fileID: 821769593}
  m_Enabled: 1
--- !u!124 &821769596
Behaviour:
  m_ObjectHideFlags: 0
  m_PrefabParentObject: {fileID: 12400000, guid: 49a0e923d39ec3c4c8bb97699e2f2903,
    type: 2}
  m_PrefabInternal: {fileID: 1005348806}
  m_GameObject: {fileID: 821769593}
  m_Enabled: 1
--- !u!92 &821769597
Behaviour:
  m_ObjectHideFlags: 0
  m_PrefabParentObject: {fileID: 9200000, guid: 49a0e923d39ec3c4c8bb97699e2f2903,
    type: 2}
  m_PrefabInternal: {fileID: 1005348806}
  m_GameObject: {fileID: 821769593}
  m_Enabled: 1
--- !u!20 &821769598
Camera:
  m_ObjectHideFlags: 0
  m_PrefabParentObject: {fileID: 2000000, guid: 49a0e923d39ec3c4c8bb97699e2f2903,
    type: 2}
  m_PrefabInternal: {fileID: 1005348806}
  m_GameObject: {fileID: 821769593}
  m_Enabled: 1
  serializedVersion: 2
  m_ClearFlags: 1
  m_BackGroundColor: {r: .625529051, g: .684091985, b: .776119411, a: .0196078438}
  m_NormalizedViewPortRect:
    serializedVersion: 2
    x: 0
    y: 0
    width: 1
    height: 1
  near clip plane: .0199999996
  far clip plane: 400
  field of view: 60
  orthographic: 0
  orthographic size: 100
  m_Depth: -1
  m_CullingMask:
    serializedVersion: 2
    m_Bits: 4294967295
  m_RenderingPath: -1
  m_TargetTexture: {fileID: 0}
  m_TargetDisplay: 0
  m_HDR: 0
  m_OcclusionCulling: 1
  m_StereoConvergence: 10
  m_StereoSeparation: .0219999999
--- !u!1 &828819530
GameObject:
  m_ObjectHideFlags: 0
  m_PrefabParentObject: {fileID: 100000, guid: dad204f0be9faf44180198af52716979, type: 2}
  m_PrefabInternal: {fileID: 1775576662}
  serializedVersion: 4
  m_Component:
  - 4: {fileID: 828819531}
  - 131: {fileID: 828819533}
  - 114: {fileID: 828819532}
  m_Layer: 0
  m_Name: Jump Button
  m_TagString: Untagged
  m_Icon: {fileID: 0}
  m_NavMeshLayer: 0
  m_StaticEditorFlags: 0
  m_IsActive: 0
--- !u!4 &828819531
Transform:
  m_ObjectHideFlags: 0
  m_PrefabParentObject: {fileID: 400000, guid: dad204f0be9faf44180198af52716979, type: 2}
  m_PrefabInternal: {fileID: 1775576662}
  m_GameObject: {fileID: 828819530}
  m_LocalRotation: {x: 0, y: 0, z: 0, w: 1}
  m_LocalPosition: {x: .800000012, y: .200000003, z: 0}
  m_LocalScale: {x: 0, y: 0, z: 1}
  m_Children: []
  m_Father: {fileID: 258257272}
  m_RootOrder: 0
--- !u!114 &828819532
MonoBehaviour:
  m_ObjectHideFlags: 0
  m_PrefabParentObject: {fileID: 11400002, guid: dad204f0be9faf44180198af52716979,
    type: 2}
  m_PrefabInternal: {fileID: 1775576662}
  m_GameObject: {fileID: 828819530}
  m_Enabled: 1
  m_EditorHideFlags: 0
  m_Script: {fileID: 11500000, guid: fca1efea70f9e554cb99d88dedf49f2a, type: 3}
  m_Name: 
  m_EditorClassIdentifier: 
  buttonName: Jump
  pairedWithInputManager: 1
  keepPressed: 0
  fireOnce: 0
--- !u!131 &828819533
GUITexture:
  m_ObjectHideFlags: 0
  m_PrefabParentObject: {fileID: 13100000, guid: dad204f0be9faf44180198af52716979,
    type: 2}
  m_PrefabInternal: {fileID: 1775576662}
  m_GameObject: {fileID: 828819530}
  m_Enabled: 1
  m_Texture: {fileID: 2800000, guid: 5caa12899bb0c431c9041083b852586f, type: 3}
  m_Color: {r: .5, g: .5, b: .5, a: .5}
  m_PixelInset:
    serializedVersion: 2
    x: -128
    y: -32
    width: 256
    height: 64
  m_LeftBorder: 0
  m_RightBorder: 0
  m_TopBorder: 0
  m_BottomBorder: 0
--- !u!1 &879837758
GameObject:
  m_ObjectHideFlags: 0
  m_PrefabParentObject: {fileID: 100000, guid: 39bad9409a26955448ed6b7943f53c9a, type: 2}
  m_PrefabInternal: {fileID: 1292994222}
  serializedVersion: 4
  m_Component:
  - 4: {fileID: 879837759}
  - 108: {fileID: 879837760}
  m_Layer: 0
  m_Name: Light Ambient Directional
  m_TagString: Untagged
  m_Icon: {fileID: 0}
  m_NavMeshLayer: 0
  m_StaticEditorFlags: 0
  m_IsActive: 1
--- !u!4 &879837759
Transform:
  m_ObjectHideFlags: 0
  m_PrefabParentObject: {fileID: 400000, guid: 39bad9409a26955448ed6b7943f53c9a, type: 2}
  m_PrefabInternal: {fileID: 1292994222}
  m_GameObject: {fileID: 879837758}
  m_LocalRotation: {x: -.600013852, y: .347940356, z: .699293911, w: -.172941864}
  m_LocalPosition: {x: 0, y: 12, z: 0}
  m_LocalScale: {x: 1, y: 1, z: 1}
  m_Children: []
  m_Father: {fileID: 421054670}
  m_RootOrder: 1
--- !u!108 &879837760
Light:
  m_ObjectHideFlags: 0
  m_PrefabParentObject: {fileID: 10800000, guid: 39bad9409a26955448ed6b7943f53c9a,
    type: 2}
  m_PrefabInternal: {fileID: 1292994222}
  m_GameObject: {fileID: 879837758}
  m_Enabled: 1
  serializedVersion: 3
  m_Type: 1
  m_Color: {r: .708477497, g: .799725533, b: .823529422, a: 1}
  m_Intensity: .349999994
  m_Range: 44.5999985
  m_SpotAngle: 112
  m_CookieSize: 10
  m_Shadows:
    m_Type: 0
    m_Resolution: 2
    m_Strength: .600000024
    m_Bias: .0199999996
    m_Softness: 4
    m_SoftnessFade: 1
  m_Cookie: {fileID: 0}
  m_DrawHalo: 0
  m_ActuallyLightmapped: 0
  m_Flare: {fileID: 0}
  m_RenderMode: 1
  m_CullingMask:
    serializedVersion: 2
    m_Bits: 4294966270
  m_Lightmapping: 1
  m_ShadowSamples: 1
  m_ShadowRadius: 0
  m_ShadowAngle: 0
  m_IndirectIntensity: 1
  m_AreaSize: {x: 1, y: 1}
--- !u!1001 &1005348806
Prefab:
  m_ObjectHideFlags: 0
  serializedVersion: 2
  m_Modification:
    m_TransformParent: {fileID: 0}
    m_Modifications:
    - target: {fileID: 400004, guid: 49a0e923d39ec3c4c8bb97699e2f2903, type: 2}
      propertyPath: m_LocalPosition.x
      value: 0
      objectReference: {fileID: 0}
    - target: {fileID: 400004, guid: 49a0e923d39ec3c4c8bb97699e2f2903, type: 2}
      propertyPath: m_LocalPosition.y
      value: .5
      objectReference: {fileID: 0}
    - target: {fileID: 400004, guid: 49a0e923d39ec3c4c8bb97699e2f2903, type: 2}
      propertyPath: m_LocalPosition.z
      value: 0
      objectReference: {fileID: 0}
    - target: {fileID: 400004, guid: 49a0e923d39ec3c4c8bb97699e2f2903, type: 2}
      propertyPath: m_LocalRotation.x
      value: 0
      objectReference: {fileID: 0}
    - target: {fileID: 400004, guid: 49a0e923d39ec3c4c8bb97699e2f2903, type: 2}
      propertyPath: m_LocalRotation.y
      value: 0
      objectReference: {fileID: 0}
    - target: {fileID: 400004, guid: 49a0e923d39ec3c4c8bb97699e2f2903, type: 2}
      propertyPath: m_LocalRotation.z
      value: 0
      objectReference: {fileID: 0}
    - target: {fileID: 400004, guid: 49a0e923d39ec3c4c8bb97699e2f2903, type: 2}
      propertyPath: m_LocalRotation.w
      value: 1
      objectReference: {fileID: 0}
    - target: {fileID: 400000, guid: 49a0e923d39ec3c4c8bb97699e2f2903, type: 2}
      propertyPath: m_LocalPosition.y
      value: 1.5
      objectReference: {fileID: 0}
    - target: {fileID: 11400000, guid: 49a0e923d39ec3c4c8bb97699e2f2903, type: 2}
      propertyPath: moveSpeed
      value: 20
      objectReference: {fileID: 0}
    - target: {fileID: 400002, guid: 49a0e923d39ec3c4c8bb97699e2f2903, type: 2}
      propertyPath: m_LocalPosition.y
      value: 0
      objectReference: {fileID: 0}
    - target: {fileID: 400002, guid: 49a0e923d39ec3c4c8bb97699e2f2903, type: 2}
      propertyPath: m_LocalPosition.z
      value: -6
      objectReference: {fileID: 0}
    - target: {fileID: 100004, guid: 49a0e923d39ec3c4c8bb97699e2f2903, type: 2}
      propertyPath: m_IsActive
      value: 1
      objectReference: {fileID: 0}
    m_RemovedComponents: []
  m_ParentPrefab: {fileID: 100100000, guid: 49a0e923d39ec3c4c8bb97699e2f2903, type: 2}
  m_RootGameObject: {fileID: 1886412967}
  m_IsPrefabParent: 0
  m_IsExploded: 1
--- !u!1 &1103387954
GameObject:
  m_ObjectHideFlags: 0
  m_PrefabParentObject: {fileID: 100004, guid: dad204f0be9faf44180198af52716979, type: 2}
  m_PrefabInternal: {fileID: 1775576662}
  serializedVersion: 4
  m_Component:
  - 4: {fileID: 1103387955}
  - 131: {fileID: 1103387957}
  - 114: {fileID: 1103387956}
  m_Layer: 0
  m_Name: Mobile Joystick
  m_TagString: Untagged
  m_Icon: {fileID: 0}
  m_NavMeshLayer: 0
  m_StaticEditorFlags: 0
  m_IsActive: 0
--- !u!4 &1103387955
Transform:
  m_ObjectHideFlags: 0
  m_PrefabParentObject: {fileID: 400004, guid: dad204f0be9faf44180198af52716979, type: 2}
  m_PrefabInternal: {fileID: 1775576662}
  m_GameObject: {fileID: 1103387954}
  m_LocalRotation: {x: 0, y: 0, z: 0, w: 1}
  m_LocalPosition: {x: .200000003, y: .200000003, z: 0}
  m_LocalScale: {x: 0, y: 0, z: 1}
  m_Children: []
  m_Father: {fileID: 258257272}
  m_RootOrder: 1
--- !u!114 &1103387956
MonoBehaviour:
  m_ObjectHideFlags: 0
  m_PrefabParentObject: {fileID: 11400004, guid: dad204f0be9faf44180198af52716979,
    type: 2}
  m_PrefabInternal: {fileID: 1775576662}
  m_GameObject: {fileID: 1103387954}
  m_Enabled: 1
  m_EditorHideFlags: 0
  m_Script: {fileID: 11500000, guid: e4afbc9be1cd7ff49a586a40350a7df2, type: 3}
  m_Name: 
  m_EditorClassIdentifier: 
  deadZone: {x: 0, y: 0}
  normalize: 0
  autoReturnSpeed: {x: 4, y: 4}
  horizontalAxisName: Horizontal
  verticalAxisName: Vertical
  axesToUse: 0
  invertX: 0
  invertY: 0
  touchZone: {fileID: 0}
  touchZonePadding: 0
  autoReturnStyle: 1
  sensitivity: {x: 1, y: 1}
  interpolateTime: {x: 2, y: 2}
  startPosition: {x: 0, y: 0}
--- !u!131 &1103387957
GUITexture:
  m_ObjectHideFlags: 0
  m_PrefabParentObject: {fileID: 13100002, guid: dad204f0be9faf44180198af52716979,
    type: 2}
  m_PrefabInternal: {fileID: 1775576662}
  m_GameObject: {fileID: 1103387954}
  m_Enabled: 1
  m_Texture: {fileID: 2800000, guid: 65a307bdc44ed4968b6325588449d934, type: 3}
  m_Color: {r: .5, g: .5, b: .5, a: .5}
  m_PixelInset:
    serializedVersion: 2
    x: -50
    y: -50
    width: 100
    height: 100
  m_LeftBorder: 0
  m_RightBorder: 0
  m_TopBorder: 0
  m_BottomBorder: 0
--- !u!1001 &1292994222
Prefab:
  m_ObjectHideFlags: 0
  serializedVersion: 2
  m_Modification:
    m_TransformParent: {fileID: 0}
    m_Modifications:
    - target: {fileID: 400004, guid: 39bad9409a26955448ed6b7943f53c9a, type: 2}
      propertyPath: m_LocalPosition.x
      value: 0
      objectReference: {fileID: 0}
    - target: {fileID: 400004, guid: 39bad9409a26955448ed6b7943f53c9a, type: 2}
      propertyPath: m_LocalPosition.y
      value: 0
      objectReference: {fileID: 0}
    - target: {fileID: 400004, guid: 39bad9409a26955448ed6b7943f53c9a, type: 2}
      propertyPath: m_LocalPosition.z
      value: 0
      objectReference: {fileID: 0}
    - target: {fileID: 400004, guid: 39bad9409a26955448ed6b7943f53c9a, type: 2}
      propertyPath: m_LocalRotation.x
      value: 0
      objectReference: {fileID: 0}
    - target: {fileID: 400004, guid: 39bad9409a26955448ed6b7943f53c9a, type: 2}
      propertyPath: m_LocalRotation.y
      value: 0
      objectReference: {fileID: 0}
    - target: {fileID: 400004, guid: 39bad9409a26955448ed6b7943f53c9a, type: 2}
      propertyPath: m_LocalRotation.z
      value: 0
      objectReference: {fileID: 0}
    - target: {fileID: 400004, guid: 39bad9409a26955448ed6b7943f53c9a, type: 2}
      propertyPath: m_LocalRotation.w
      value: 1
      objectReference: {fileID: 0}
    - target: {fileID: 100000, guid: 39bad9409a26955448ed6b7943f53c9a, type: 2}
      propertyPath: m_IsActive
      value: 1
      objectReference: {fileID: 0}
    m_RemovedComponents: []
  m_ParentPrefab: {fileID: 100100000, guid: 39bad9409a26955448ed6b7943f53c9a, type: 2}
  m_RootGameObject: {fileID: 421054669}
  m_IsPrefabParent: 0
  m_IsExploded: 1
--- !u!1001 &1775576662
Prefab:
  m_ObjectHideFlags: 0
  serializedVersion: 2
  m_Modification:
    m_TransformParent: {fileID: 0}
    m_Modifications:
    - target: {fileID: 400002, guid: dad204f0be9faf44180198af52716979, type: 2}
      propertyPath: m_LocalPosition.x
      value: 0
      objectReference: {fileID: 0}
    - target: {fileID: 400002, guid: dad204f0be9faf44180198af52716979, type: 2}
      propertyPath: m_LocalPosition.y
      value: 0
      objectReference: {fileID: 0}
    - target: {fileID: 400002, guid: dad204f0be9faf44180198af52716979, type: 2}
      propertyPath: m_LocalPosition.z
      value: 0
      objectReference: {fileID: 0}
    - target: {fileID: 400002, guid: dad204f0be9faf44180198af52716979, type: 2}
      propertyPath: m_LocalRotation.x
      value: 0
      objectReference: {fileID: 0}
    - target: {fileID: 400002, guid: dad204f0be9faf44180198af52716979, type: 2}
      propertyPath: m_LocalRotation.y
      value: 0
      objectReference: {fileID: 0}
    - target: {fileID: 400002, guid: dad204f0be9faf44180198af52716979, type: 2}
      propertyPath: m_LocalRotation.z
      value: 0
      objectReference: {fileID: 0}
    - target: {fileID: 400002, guid: dad204f0be9faf44180198af52716979, type: 2}
      propertyPath: m_LocalRotation.w
      value: 1
      objectReference: {fileID: 0}
    - target: {fileID: 100002, guid: dad204f0be9faf44180198af52716979, type: 2}
      propertyPath: m_IsActive
      value: 1
      objectReference: {fileID: 0}
    - target: {fileID: 100000, guid: dad204f0be9faf44180198af52716979, type: 2}
      propertyPath: m_IsActive
      value: 0
      objectReference: {fileID: 0}
    - target: {fileID: 100004, guid: dad204f0be9faf44180198af52716979, type: 2}
      propertyPath: m_IsActive
      value: 0
      objectReference: {fileID: 0}
    m_RemovedComponents: []
  m_ParentPrefab: {fileID: 100100000, guid: dad204f0be9faf44180198af52716979, type: 2}
  m_RootGameObject: {fileID: 258257270}
  m_IsPrefabParent: 0
  m_IsExploded: 1
--- !u!1 &1856982364
GameObject:
  m_ObjectHideFlags: 0
  m_PrefabParentObject: {fileID: 100000, guid: 753ea9ccf9eee6c42a0954ec8663b992, type: 2}
  m_PrefabInternal: {fileID: 131094097}
  serializedVersion: 4
  m_Component:
  - 4: {fileID: 1856982371}
  - 33: {fileID: 1856982370}
  - 23: {fileID: 1856982368}
  - 135: {fileID: 1856982369}
  - 54: {fileID: 1856982367}
  - 114: {fileID: 1856982366}
  - 114: {fileID: 1856982365}
  m_Layer: 9
  m_Name: Ball
  m_TagString: Player
  m_Icon: {fileID: 0}
  m_NavMeshLayer: 0
  m_StaticEditorFlags: 0
  m_IsActive: 1
--- !u!114 &1856982365
MonoBehaviour:
  m_ObjectHideFlags: 0
  m_PrefabParentObject: {fileID: 11400002, guid: 753ea9ccf9eee6c42a0954ec8663b992,
    type: 2}
  m_PrefabInternal: {fileID: 131094097}
  m_GameObject: {fileID: 1856982364}
  m_Enabled: 1
  m_EditorHideFlags: 0
  m_Script: {fileID: 11500000, guid: daa7e0829bc72c94babd728cc0466196, type: 3}
  m_Name: 
  m_EditorClassIdentifier: 
--- !u!114 &1856982366
MonoBehaviour:
  m_ObjectHideFlags: 0
  m_PrefabParentObject: {fileID: 11400000, guid: 753ea9ccf9eee6c42a0954ec8663b992,
    type: 2}
  m_PrefabInternal: {fileID: 131094097}
  m_GameObject: {fileID: 1856982364}
  m_Enabled: 1
  m_EditorHideFlags: 0
  m_Script: {fileID: 11500000, guid: e004fefca5c7ba44d9c5ffd46fdee2ed, type: 3}
  m_Name: 
  m_EditorClassIdentifier: 
  movePower: 5
  useTorque: 1
  maxAngularVelocity: 25
  jumpPower: 2
--- !u!54 &1856982367
Rigidbody:
  m_ObjectHideFlags: 0
  m_PrefabParentObject: {fileID: 5400000, guid: 753ea9ccf9eee6c42a0954ec8663b992,
    type: 2}
  m_PrefabInternal: {fileID: 131094097}
  m_GameObject: {fileID: 1856982364}
  serializedVersion: 2
  m_Mass: 1
  m_Drag: .100000001
  m_AngularDrag: 1
  m_UseGravity: 1
  m_IsKinematic: 0
  m_Interpolate: 0
  m_Constraints: 0
  m_CollisionDetection: 0
--- !u!23 &1856982368
Renderer:
  m_ObjectHideFlags: 0
  m_PrefabParentObject: {fileID: 2300000, guid: 753ea9ccf9eee6c42a0954ec8663b992,
    type: 2}
  m_PrefabInternal: {fileID: 131094097}
  m_GameObject: {fileID: 1856982364}
  m_Enabled: 1
  m_CastShadows: 1
  m_ReceiveShadows: 1
  m_LightmapIndex: 255
  m_LightmapTilingOffset: {x: 1, y: 1, z: 0, w: 0}
  m_Materials:
  - {fileID: 2100000, guid: 3243119201992fa4ca80cffab1bdedfe, type: 2}
  m_SubsetIndices: 
  m_StaticBatchRoot: {fileID: 0}
  m_UseLightProbes: 0
  m_LightProbeAnchor: {fileID: 0}
  m_ScaleInLightmap: 1
  m_SortingLayerID: 0
  m_SortingOrder: 0
--- !u!135 &1856982369
SphereCollider:
  m_ObjectHideFlags: 0
  m_PrefabParentObject: {fileID: 13500000, guid: 753ea9ccf9eee6c42a0954ec8663b992,
    type: 2}
  m_PrefabInternal: {fileID: 131094097}
  m_GameObject: {fileID: 1856982364}
  m_Material: {fileID: 13400000, guid: fa9a139ead11e8d6d00011d98d76c639, type: 2}
  m_IsTrigger: 0
  m_Enabled: 1
  serializedVersion: 2
  m_Radius: .5
  m_Center: {x: 0, y: 0, z: 0}
--- !u!33 &1856982370
MeshFilter:
  m_ObjectHideFlags: 0
  m_PrefabParentObject: {fileID: 3300000, guid: 753ea9ccf9eee6c42a0954ec8663b992,
    type: 2}
  m_PrefabInternal: {fileID: 131094097}
  m_GameObject: {fileID: 1856982364}
  m_Mesh: {fileID: 4300004, guid: d05d496cb4f43c14e80630addd23652e, type: 3}
--- !u!4 &1856982371
Transform:
  m_ObjectHideFlags: 0
  m_PrefabParentObject: {fileID: 400000, guid: 753ea9ccf9eee6c42a0954ec8663b992, type: 2}
  m_PrefabInternal: {fileID: 131094097}
  m_GameObject: {fileID: 1856982364}
  m_LocalRotation: {x: 0, y: 0, z: 0, w: 1}
  m_LocalPosition: {x: 0, y: .5, z: 0}
  m_LocalScale: {x: 1, y: 1, z: 1}
  m_Children: []
  m_Father: {fileID: 0}
  m_RootOrder: 5
--- !u!1 &1886412967
GameObject:
  m_ObjectHideFlags: 0
  m_PrefabParentObject: {fileID: 100004, guid: 49a0e923d39ec3c4c8bb97699e2f2903, type: 2}
  m_PrefabInternal: {fileID: 1005348806}
  serializedVersion: 4
  m_Component:
  - 4: {fileID: 1886412971}
  - 54: {fileID: 1886412970}
  - 114: {fileID: 1886412969}
  - 114: {fileID: 1886412968}
  m_Layer: 0
  m_Name: Free Look Camera Rig
  m_TagString: Untagged
  m_Icon: {fileID: -215833656, guid: 0000000000000000d000000000000000, type: 0}
  m_NavMeshLayer: 0
  m_StaticEditorFlags: 0
  m_IsActive: 1
--- !u!114 &1886412968
MonoBehaviour:
  m_ObjectHideFlags: 0
  m_PrefabParentObject: {fileID: 11400002, guid: 49a0e923d39ec3c4c8bb97699e2f2903,
    type: 2}
  m_PrefabInternal: {fileID: 1005348806}
  m_GameObject: {fileID: 1886412967}
  m_Enabled: 1
  m_EditorHideFlags: 0
  m_Script: {fileID: 11500000, guid: 94b04ec3bda6b7747aa53936ef3b0ae2, type: 3}
  m_Name: 
  m_EditorClassIdentifier: 
  clipMoveTime: .0500000007
  returnTime: .400000006
  sphereCastRadius: .100000001
  visualiseInEditor: 1
  closestDistance: .5
  dontClipTag: Player
--- !u!114 &1886412969
MonoBehaviour:
  m_ObjectHideFlags: 0
  m_PrefabParentObject: {fileID: 11400000, guid: 49a0e923d39ec3c4c8bb97699e2f2903,
    type: 2}
  m_PrefabInternal: {fileID: 1005348806}
  m_GameObject: {fileID: 1886412967}
  m_Enabled: 1
  m_EditorHideFlags: 0
  m_Script: {fileID: 11500000, guid: e44af8091779fcb40801d5b284353dbe, type: 3}
  m_Name: 
  m_EditorClassIdentifier: 
  target: {fileID: 0}
  autoTargetPlayer: 1
  updateType: 1
  followTargetInEditMode: 1
  moveSpeed: 20
  turnSpeed: 10
  turnSmoothing: 0
  tiltMax: 75
  tiltMin: 45
  lockCursor: 0
--- !u!54 &1886412970
Rigidbody:
  m_ObjectHideFlags: 0
  m_PrefabParentObject: {fileID: 5400000, guid: 49a0e923d39ec3c4c8bb97699e2f2903,
    type: 2}
  m_PrefabInternal: {fileID: 1005348806}
  m_GameObject: {fileID: 1886412967}
  serializedVersion: 2
  m_Mass: 1
  m_Drag: 0
  m_AngularDrag: .0500000007
  m_UseGravity: 1
  m_IsKinematic: 1
  m_Interpolate: 1
  m_Constraints: 0
  m_CollisionDetection: 0
--- !u!4 &1886412971
Transform:
  m_ObjectHideFlags: 0
  m_PrefabParentObject: {fileID: 400004, guid: 49a0e923d39ec3c4c8bb97699e2f2903, type: 2}
  m_PrefabInternal: {fileID: 1005348806}
  m_GameObject: {fileID: 1886412967}
  m_LocalRotation: {x: 0, y: 0, z: 0, w: 1}
  m_LocalPosition: {x: 0, y: .5, z: 0}
  m_LocalScale: {x: 1, y: 1, z: 1}
  m_Children:
  - {fileID: 474335314}
  m_Father: {fileID: 0}
  m_RootOrder: 3
--- !u!1 &1917740740
GameObject:
  m_ObjectHideFlags: 0
  m_PrefabParentObject: {fileID: 100000, guid: faad7b4fb706f44478b101c4da4fa1d1, type: 2}
  m_PrefabInternal: {fileID: 163709026}
  serializedVersion: 4
  m_Component:
  - 4: {fileID: 1917740742}
  - 65: {fileID: 1917740741}
  m_Layer: 10
  m_Name: Floor
  m_TagString: Untagged
  m_Icon: {fileID: 0}
  m_NavMeshLayer: 0
  m_StaticEditorFlags: 4294967295
  m_IsActive: 1
--- !u!65 &1917740741
BoxCollider:
  m_ObjectHideFlags: 0
  m_PrefabParentObject: {fileID: 6500000, guid: faad7b4fb706f44478b101c4da4fa1d1,
    type: 2}
  m_PrefabInternal: {fileID: 163709026}
  m_GameObject: {fileID: 1917740740}
  m_Material: {fileID: 0}
  m_IsTrigger: 0
  m_Enabled: 1
  serializedVersion: 2
  m_Size: {x: 10000, y: 1, z: 10000}
  m_Center: {x: 0, y: -.5, z: 0}
--- !u!4 &1917740742
Transform:
  m_ObjectHideFlags: 0
  m_PrefabParentObject: {fileID: 400000, guid: faad7b4fb706f44478b101c4da4fa1d1, type: 2}
  m_PrefabInternal: {fileID: 163709026}
  m_GameObject: {fileID: 1917740740}
  m_LocalRotation: {x: 0, y: 0, z: 0, w: 1}
  m_LocalPosition: {x: 0, y: 0, z: 0}
  m_LocalScale: {x: 1, y: 1, z: 1}
  m_Children:
  - {fileID: 1944805052}
  m_Father: {fileID: 0}
  m_RootOrder: 4
--- !u!1 &1944805051
GameObject:
  m_ObjectHideFlags: 0
  m_PrefabParentObject: {fileID: 100002, guid: faad7b4fb706f44478b101c4da4fa1d1, type: 2}
  m_PrefabInternal: {fileID: 163709026}
  serializedVersion: 4
  m_Component:
  - 4: {fileID: 1944805052}
  - 33: {fileID: 1944805055}
  - 23: {fileID: 1944805054}
  m_Layer: 10
  m_Name: Prototype Floor
  m_TagString: Untagged
  m_Icon: {fileID: 0}
  m_NavMeshLayer: 0
  m_StaticEditorFlags: 4294967295
  m_IsActive: 1
--- !u!4 &1944805052
Transform:
  m_ObjectHideFlags: 0
  m_PrefabParentObject: {fileID: 400002, guid: faad7b4fb706f44478b101c4da4fa1d1, type: 2}
  m_PrefabInternal: {fileID: 163709026}
  m_GameObject: {fileID: 1944805051}
  m_LocalRotation: {x: 0, y: 0, z: 0, w: 1}
  m_LocalPosition: {x: 0, y: 0, z: 0}
  m_LocalScale: {x: 100, y: 1, z: 100}
  m_Children: []
  m_Father: {fileID: 1917740742}
  m_RootOrder: 0
--- !u!23 &1944805054
Renderer:
  m_ObjectHideFlags: 0
  m_PrefabParentObject: {fileID: 2300000, guid: faad7b4fb706f44478b101c4da4fa1d1,
    type: 2}
  m_PrefabInternal: {fileID: 163709026}
  m_GameObject: {fileID: 1944805051}
  m_Enabled: 1
  m_CastShadows: 0
  m_ReceiveShadows: 1
  m_LightmapIndex: 255
  m_LightmapTilingOffset: {x: 1, y: 1, z: 0, w: 0}
  m_Materials:
  - {fileID: 2100000, guid: 4876fc9dc009bbe4493553020a561611, type: 2}
  m_SubsetIndices: 
  m_StaticBatchRoot: {fileID: 0}
  m_UseLightProbes: 0
  m_LightProbeAnchor: {fileID: 0}
  m_ScaleInLightmap: 1
  m_SortingLayerID: 0
  m_SortingOrder: 0
--- !u!33 &1944805055
MeshFilter:
  m_ObjectHideFlags: 0
  m_PrefabParentObject: {fileID: 3300000, guid: faad7b4fb706f44478b101c4da4fa1d1,
    type: 2}
  m_PrefabInternal: {fileID: 163709026}
  m_GameObject: {fileID: 1944805051}
  m_Mesh: {fileID: 4300000, guid: 49d225a8083c6bf409cb0d5d1f856b2b, type: 3}
--- !u!1001 &2028183761
Prefab:
  m_ObjectHideFlags: 0
  serializedVersion: 2
  m_Modification:
    m_TransformParent: {fileID: 0}
    m_Modifications:
    - target: {fileID: 400000, guid: 76d89ae3180ce424ba0da8fc43e02035, type: 2}
      propertyPath: m_LocalPosition.x
      value: 0
      objectReference: {fileID: 0}
    - target: {fileID: 400000, guid: 76d89ae3180ce424ba0da8fc43e02035, type: 2}
      propertyPath: m_LocalPosition.y
      value: 0
      objectReference: {fileID: 0}
    - target: {fileID: 400000, guid: 76d89ae3180ce424ba0da8fc43e02035, type: 2}
      propertyPath: m_LocalPosition.z
      value: 0
      objectReference: {fileID: 0}
    - target: {fileID: 400000, guid: 76d89ae3180ce424ba0da8fc43e02035, type: 2}
      propertyPath: m_LocalRotation.x
      value: 0
      objectReference: {fileID: 0}
    - target: {fileID: 400000, guid: 76d89ae3180ce424ba0da8fc43e02035, type: 2}
      propertyPath: m_LocalRotation.y
      value: 0
      objectReference: {fileID: 0}
    - target: {fileID: 400000, guid: 76d89ae3180ce424ba0da8fc43e02035, type: 2}
      propertyPath: m_LocalRotation.z
      value: 0
      objectReference: {fileID: 0}
    - target: {fileID: 400000, guid: 76d89ae3180ce424ba0da8fc43e02035, type: 2}
      propertyPath: m_LocalRotation.w
      value: 1
      objectReference: {fileID: 0}
    m_RemovedComponents: []
  m_ParentPrefab: {fileID: 100100000, guid: 76d89ae3180ce424ba0da8fc43e02035, type: 2}
  m_RootGameObject: {fileID: 50293810}
  m_IsPrefabParent: 0
  m_IsExploded: 1
